{
    "/js/app.js": "/js/app.js?id=a0ed09a8e640ad6df434",
    "/css/app.css": "/css/app.css?id=7b982a3d6d6eef1e9e07",
    "/js/manifest.js": "/js/manifest.js?id=3c768977c2574a34506e",
    "/js/vendor.js": "/js/vendor.js?id=e84cac01c3d84de87036"
}
